('C:\\Users\\muril\\PycharmProjects\\File_Organizer\\build\\fileorganize\\fileorganize.pkg',
 {'BINARY': 1,
  'DATA': 1,
  'EXECUTABLE': 1,
  'EXTENSION': 1,
  'PYMODULE': 1,
  'PYSOURCE': 1,
  'PYZ': 0,
  'SPLASH': 1},
 [('PYZ-00.pyz',
   'C:\\Users\\muril\\PycharmProjects\\File_Organizer\\build\\fileorganize\\PYZ-00.pyz',
   'PYZ'),
  ('struct',
   'C:\\Users\\muril\\PycharmProjects\\File_Organizer\\build\\fileorganize\\localpycs\\struct.pyc',
   'PYMODULE'),
  ('pyimod01_archive',
   'C:\\Users\\muril\\PycharmProjects\\File_Organizer\\build\\fileorganize\\localpycs\\pyimod01_archive.pyc',
   'PYMODULE'),
  ('pyimod02_importers',
   'C:\\Users\\muril\\PycharmProjects\\File_Organizer\\build\\fileorganize\\localpycs\\pyimod02_importers.pyc',
   'PYMODULE'),
  ('pyimod03_ctypes',
   'C:\\Users\\muril\\PycharmProjects\\File_Organizer\\build\\fileorganize\\localpycs\\pyimod03_ctypes.pyc',
   'PYMODULE'),
  ('pyiboot01_bootstrap',
   'C:\\Users\\muril\\PycharmProjects\\File_Organizer\\venv\\lib\\site-packages\\PyInstaller\\loader\\pyiboot01_bootstrap.py',
   'PYSOURCE'),
  ('pyi_rth_subprocess',
   'C:\\Users\\muril\\PycharmProjects\\File_Organizer\\venv\\Lib\\site-packages\\PyInstaller\\hooks\\rthooks\\pyi_rth_subprocess.py',
   'PYSOURCE'),
  ('fileorganize',
   'C:\\Users\\muril\\PycharmProjects\\File_Organizer\\fileorganize.py',
   'PYSOURCE'),
  ('python39.dll',
   'C:\\Users\\muril\\AppData\\Local\\Programs\\Python\\Python39\\python39.dll',
   'BINARY'),
  ('VCRUNTIME140.dll',
   'C:\\Users\\muril\\AppData\\Local\\Programs\\Python\\Python39\\VCRUNTIME140.dll',
   'BINARY'),
  ('select',
   'C:\\Users\\muril\\AppData\\Local\\Programs\\Python\\Python39\\DLLs\\select.pyd',
   'EXTENSION'),
  ('unicodedata',
   'C:\\Users\\muril\\AppData\\Local\\Programs\\Python\\Python39\\DLLs\\unicodedata.pyd',
   'EXTENSION'),
  ('_bz2',
   'C:\\Users\\muril\\AppData\\Local\\Programs\\Python\\Python39\\DLLs\\_bz2.pyd',
   'EXTENSION'),
  ('_decimal',
   'C:\\Users\\muril\\AppData\\Local\\Programs\\Python\\Python39\\DLLs\\_decimal.pyd',
   'EXTENSION'),
  ('_hashlib',
   'C:\\Users\\muril\\AppData\\Local\\Programs\\Python\\Python39\\DLLs\\_hashlib.pyd',
   'EXTENSION'),
  ('_ssl',
   'C:\\Users\\muril\\AppData\\Local\\Programs\\Python\\Python39\\DLLs\\_ssl.pyd',
   'EXTENSION'),
  ('_socket',
   'C:\\Users\\muril\\AppData\\Local\\Programs\\Python\\Python39\\DLLs\\_socket.pyd',
   'EXTENSION'),
  ('_lzma',
   'C:\\Users\\muril\\AppData\\Local\\Programs\\Python\\Python39\\DLLs\\_lzma.pyd',
   'EXTENSION'),
  ('libcrypto-1_1.dll',
   'C:\\Users\\muril\\AppData\\Local\\Programs\\Python\\Python39\\DLLs\\libcrypto-1_1.dll',
   'BINARY'),
  ('libssl-1_1.dll',
   'C:\\Users\\muril\\AppData\\Local\\Programs\\Python\\Python39\\DLLs\\libssl-1_1.dll',
   'BINARY'),
  ('base_library.zip',
   'C:\\Users\\muril\\PycharmProjects\\File_Organizer\\build\\fileorganize\\base_library.zip',
   'DATA')],
 False,
 False,
 False,
 [],
 None,
 None,
 None)
